{
	"consumer_key"	 	: "Khja4ImKyXy8xyr93TPLRBeBT",
	"consumer_secret"	: "MRdYwVYHtao5hSCgN5lU5TFBtLBjp7yGeMMf8Sq8foNp1kf8hC",
	"access_token" 		: "54705917-pwbhe6vwY9YIL2855qAXBpMN2WmY6g7M9dgHvlRlE",
	"access_token_secret": "z0hJFI85R1uvQ8JCWyJX2rLu6da5LrVyceJbqlXr3tK4j"
}